II/Lab3/simulation/qsim/lab3.msim.vcd
$comment
	File created using the following command:
		vcd file lab3.msim.vcd -direction
$end
$date
	Sat Mar 14 01:17:37 2020
$end
$version
	ModelSim Version 10.5b
$end
$timescale
	1ps
$end

$scope module lab3_vlg_vec_tst $end
$var reg 1 ! pin_0 $end
$var reg 1 " pin_1 $end
$var reg 1 # pin_2 $end
$var reg 1 $ pin_3 $end
$var reg 1 % pin_4 $end
$var reg 1 & pin_5 $end
$var reg 1 ' pin_6 $end
$var reg 1 ( pin_7 $end
$var reg 1 ) pin_8 $end
$var reg 1 * pin_9 $end
$var reg 1 + pin_10 $end
$var reg 1 , pin_11 $end
$var wire 1 - ledr0 $end
$var wire 1 . ledr1 $end
$var wire 1 / ledr2 $end
$var wire 1 0 ledr3 $end
$var wire 1 1 ledr4 $end
$var wire 1 2 ledr5 $end
$var wire 1 3 ledr6 $end
$var wire 1 4 ledr7 $end
$var wire 1 5 ledr8 $end
$var wire 1 6 ledr9 $end

$scope module i1 $end
$var wire 1 7 gnd $end
$var wire 1 8 vcc $end
$var wire 1 9 unknown $end
$var tri1 1 : devclrn $end
$var tri1 1 ; devpor $end
$var tri1 1 < devoe $end
$var wire 1 = ~QUARTUS_CREATED_GND~I_combout $end
$var wire 1 > ~QUARTUS_CREATED_UNVM~~busy $end
$var wire 1 ? ~QUARTUS_CREATED_ADC1~~eoc $end
$var wire 1 @ ~QUARTUS_CREATED_ADC2~~eoc $end
$var wire 1 A ledr0~output_o $end
$var wire 1 B ledr1~output_o $end
$var wire 1 C ledr2~output_o $end
$var wire 1 D ledr3~output_o $end
$var wire 1 E ledr4~output_o $end
$var wire 1 F ledr5~output_o $end
$var wire 1 G ledr6~output_o $end
$var wire 1 H ledr7~output_o $end
$var wire 1 I ledr8~output_o $end
$var wire 1 J ledr9~output_o $end
$var wire 1 K pin_5~input_o $end
$var wire 1 L pin_7~input_o $end
$var wire 1 M pin_8~input_o $end
$var wire 1 N pin_11~input_o $end
$var wire 1 O inst8~1_combout $end
$var wire 1 P pin_1~input_o $end
$var wire 1 Q pin_2~input_o $end
$var wire 1 R pin_9~input_o $end
$var wire 1 S pin_0~input_o $end
$var wire 1 T inst8~0_combout $end
$var wire 1 U pin_3~input_o $end
$var wire 1 V pin_6~input_o $end
$var wire 1 W pin_4~input_o $end
$var wire 1 X pin_10~input_o $end
$var wire 1 Y inst8~2_combout $end
$var wire 1 Z inst8~3_combout $end
$upscope $end
$upscope $end
$enddefinitions $end
#0
$dumpvars
0!
0"
0#
1$
0%
0&
1'
1(
1)
1*
0+
0,
1-
0.
0/
00
01
02
03
04
05
06
07
18
x9
1:
1;
1<
0=
z>
z?
z@
1A
0B
0C
0D
0E
0F
0G
0H
0I
0J
0K
1L
1M
0N
1O
0P
0Q
1R
0S
1T
1U
1V
0W
0X
1Y
1Z
$end
#40000
1!
1S
#80000
1"
0!
0S
1P
0T
0Z
0A
0-
#120000
1!
1S
#160000
1#
0"
0!
0S
0P
1Q
1T
1Z
1A
1-
#200000
1!
1S
#240000
1"
0!
0S
1P
#280000
1!
1S
0T
0Z
0A
0-
#320000
0#
0"
0!
0S
0P
0Q
1T
1Z
1A
1-
#360000
1!
1S
#400000
0)
1"
0!
0S
1P
0M
0T
0O
0Z
0A
0-
#440000
1!
1S
#480000
1#
0"
0!
0S
0P
1Q
1T
#520000
1!
1S
#560000
1"
0!
0S
1P
#600000
1!
1S
0T
#640000
0#
0"
0!
0S
0P
0Q
1T
#680000
1!
1S
#720000
1"
0!
0S
1P
0T
#760000
1!
1S
#800000
1)
1#
0"
0!
0S
0P
1Q
1M
1T
1O
1Z
1A
1-
#840000
1!
1S
#880000
1"
0!
0S
1P
#920000
1!
1S
0T
0Z
0A
0-
#960000
0#
0"
0!
0S
0P
0Q
1T
1Z
1A
1-
