II/Lab4/simulation/qsim/lab4.msim.vcd
$comment
	File created using the following command:
		vcd file lab4.msim.vcd -direction
$end
$date
	Sun Apr 26 16:31:40 2020
$end
$version
	ModelSim Version 10.5b
$end
$timescale
	1ps
$end

$scope module vich4_vlg_vec_tst $end
$var reg 1 ! a0 $end
$var reg 1 " a1 $end
$var reg 1 # a2 $end
$var reg 1 $ a3 $end
$var reg 1 % b0 $end
$var reg 1 & b1 $end
$var reg 1 ' b2 $end
$var reg 1 ( b3 $end
$var wire 1 ) p $end
$var wire 1 * s0 $end
$var wire 1 + s1 $end
$var wire 1 , s2 $end
$var wire 1 - s3 $end

$scope module i1 $end
$var wire 1 . gnd $end
$var wire 1 / vcc $end
$var wire 1 0 unknown $end
$var tri1 1 1 devclrn $end
$var tri1 1 2 devpor $end
$var tri1 1 3 devoe $end
$var wire 1 4 ~QUARTUS_CREATED_GND~I_combout $end
$var wire 1 5 ~QUARTUS_CREATED_UNVM~~busy $end
$var wire 1 6 ~QUARTUS_CREATED_ADC1~~eoc $end
$var wire 1 7 ~QUARTUS_CREATED_ADC2~~eoc $end
$var wire 1 8 s0~output_o $end
$var wire 1 9 s1~output_o $end
$var wire 1 : s2~output_o $end
$var wire 1 ; s3~output_o $end
$var wire 1 < p~output_o $end
$var wire 1 = a0~input_o $end
$var wire 1 > b0~input_o $end
$var wire 1 ? inst|inst~combout $end
$var wire 1 @ b1~input_o $end
$var wire 1 A a1~input_o $end
$var wire 1 B inst2|inst1~combout $end
$var wire 1 C b2~input_o $end
$var wire 1 D a2~input_o $end
$var wire 1 E inst2|inst4~combout $end
$var wire 1 F inst3|inst1~combout $end
$var wire 1 G b3~input_o $end
$var wire 1 H a3~input_o $end
$var wire 1 I inst3|inst4~combout $end
$var wire 1 J inst4|inst1~combout $end
$var wire 1 K inst4|inst4~combout $end
$upscope $end
$upscope $end
$enddefinitions $end
#0
$dumpvars
0!
0"
0#
0$
0%
0&
0'
0(
0)
0*
0+
0,
0-
0.
1/
x0
11
12
13
04
z5
z6
z7
08
09
0:
0;
0<
0=
0>
0?
0@
0A
1B
0C
0D
1E
1F
0G
0H
1I
1J
1K
$end
#4000
1!
1=
0E
0B
1?
18
19
0I
0F
1+
1*
1:
0K
0J
1,
1;
1<
1)
1-
#8000
1"
0!
0=
1A
0?
08
0*
#12000
1!
1=
1B
1?
18
09
0+
1*
#16000
1#
0"
0!
0=
0A
1D
1E
1F
0?
08
0:
0F
0,
0*
1:
1,
#20000
1!
1=
0E
0B
1?
18
19
1F
1+
1*
0:
0,
#24000
1"
0!
0=
1A
0?
08
0*
#28000
1!
1=
1B
1?
18
09
0+
1*
#32000
1$
0#
0"
0!
0=
0A
0D
1H
1E
0F
1J
0?
08
0;
1:
1I
1F
1,
0-
0*
0:
0J
0,
1;
1-
#36000
1!
1=
0E
0B
1?
18
19
0I
0F
1+
1*
1:
1J
1,
0;
0-
#40000
1"
0!
0=
1A
0?
08
0*
#44000
1!
1=
1B
1?
18
09
0+
1*
#48000
1#
0"
0!
0=
0A
1D
1E
1F
0?
08
0:
0F
0,
0*
1:
1,
#52000
1!
1=
0E
0B
1?
18
19
1F
1+
1*
0:
0,
#56000
1"
0!
0=
1A
0?
08
0*
#60000
1!
1=
1B
1?
18
09
0+
1*
#64000
1%
0$
0#
0"
0!
0=
0A
0D
0H
1>
1E
0F
0J
1;
1:
1I
1F
1,
1-
0:
1K
1J
0,
0;
0<
0)
0-
#68000
1!
1=
0?
08
0*
#72000
1"
0!
0=
1A
0E
0B
1?
18
19
0I
0F
1+
1*
1:
0K
0J
1,
1;
1<
1)
1-
#76000
1!
1=
0?
08
0*
#80000
1#
0"
0!
0=
0A
1D
1E
1B
1F
1?
18
0:
09
0F
0+
0,
1*
1:
1,
#84000
1!
1=
0?
08
0*
#88000
1"
0!
0=
1A
0E
0B
1?
18
19
1F
1+
1*
0:
0,
#92000
1!
1=
0?
08
0*
#96000
1$
0#
0"
0!
0=
0A
0D
1H
1E
1B
0F
1J
1?
18
0;
1:
09
1I
1F
0+
1,
0-
1*
0:
0J
0,
1;
1-
#100000
1!
1=
0?
08
0*
#104000
1"
0!
0=
1A
0E
0B
1?
18
19
0I
0F
1+
1*
1:
1J
1,
0;
0-
#108000
1!
1=
0?
08
0*
#112000
1#
0"
0!
0=
0A
1D
1E
1B
1F
1?
18
0:
09
0F
0+
0,
1*
1:
1,
#116000
1!
1=
0?
08
0*
#120000
1"
0!
0=
1A
0E
0B
1?
18
19
1F
1+
1*
0:
0,
#124000
1!
1=
0?
08
0*
#128000
1&
0%
0$
0#
0"
0!
0=
0A
0D
0H
0>
1@
1E
0F
0J
1;
1:
1I
1F
1,
1-
0:
1K
1J
0,
0;
0<
0)
0-
#132000
1!
1=
1B
1?
18
09
0+
1*
#136000
1"
0!
0=
1A
0?
08
0*
#140000
1!
1=
0E
0B
1?
18
19
0I
0F
1+
1*
1:
0K
0J
1,
1;
1<
1)
1-
#144000
1#
0"
0!
0=
0A
1D
1E
1F
0?
08
0:
0F
0,
0*
1:
1,
#148000
1!
1=
1B
1?
18
09
0+
1*
#152000
1"
0!
0=
1A
0?
08
0*
#156000
1!
1=
0E
0B
1?
18
19
1F
1+
1*
0:
0,
#160000
1$
0#
0"
0!
0=
0A
0D
1H
1E
0F
1J
0?
08
0;
1:
1I
1F
1,
0-
0*
0:
0J
0,
1;
1-
#164000
1!
1=
1B
1?
18
09
0+
1*
#168000
1"
0!
0=
1A
0?
08
0*
#172000
1!
1=
0E
0B
1?
18
19
0I
0F
1+
1*
1:
1J
1,
0;
0-
#176000
1#
0"
0!
0=
0A
1D
1E
1F
0?
08
0:
0F
0,
0*
1:
1,
#180000
1!
1=
1B
1?
18
09
0+
1*
#184000
1"
0!
0=
1A
0?
08
0*
#188000
1!
1=
0E
0B
1?
18
19
1F
1+
1*
0:
0,
#192000
1%
0$
0#
0"
0!
0=
0A
0D
0H
1>
1E
0F
0J
1;
1:
1I
1F
1,
1-
0:
1K
1J
0,
0;
0<
0)
0-
#196000
1!
1=
0?
08
0*
#200000
1"
0!
0=
1A
1B
1?
18
09
0+
1*
#204000
1!
1=
0?
08
0*
#208000
1#
0"
0!
0=
0A
1D
0B
0I
0F
1?
18
1:
19
0K
0J
1+
1,
1*
1;
1<
1)
1-
#212000
1!
1=
0?
08
0*
#216000
1"
0!
0=
1A
1B
1?
18
09
0+
1*
#220000
1!
1=
0?
08
0*
#224000
1$
0#
0"
0!
0=
0A
0D
1H
0B
1I
1F
1J
1?
18
0;
0:
19
0J
1+
0,
0-
1*
1;
1-
#228000
1!
1=
0?
08
0*
#232000
1"
0!
0=
1A
1B
1?
18
09
0+
1*
#236000
1!
1=
0?
08
0*
#240000
1#
0"
0!
0=
0A
1D
0B
0I
0F
1?
18
1:
19
1J
1+
1,
1*
0;
0-
#244000
1!
1=
0?
08
0*
#248000
1"
0!
0=
1A
1B
1?
18
09
0+
1*
#252000
1!
1=
0?
08
0*
#256000
1'
0&
0%
0$
0#
0"
0!
0=
0A
0D
0H
0>
0@
1C
1I
0J
1;
1K
1J
1-
0;
0<
0)
0-
#260000
1!
1=
0E
0B
1?
18
19
1F
1+
1*
0:
0,
#264000
1"
0!
0=
1A
0?
08
0*
#268000
1!
1=
1B
1?
18
09
0+
1*
#272000
1#
0"
0!
0=
0A
1D
1E
0I
0F
0?
08
1:
1I
1F
0K
0J
1,
0*
1;
1<
0:
1K
1J
0,
1)
1-
0;
0<
0)
0-
#276000
1!
1=
0E
0B
1?
18
19
0I
0F
1+
1*
1:
0K
0J
1,
1;
1<
1)
1-
#280000
1"
0!
0=
1A
0?
08
0*
#284000
1!
1=
1B
1?
18
09
0+
1*
#288000
1$
0#
0"
0!
0=
0A
0D
1H
1E
1I
1F
1J
0?
08
0;
0:
0F
0J
0,
0-
0*
1;
1:
1,
1-
#292000
1!
1=
0E
0B
1?
18
19
1F
1+
1*
0:
0,
#296000
1"
0!
0=
1A
0?
08
0*
#300000
1!
1=
1B
1?
18
09
0+
1*
#304000
1#
0"
0!
0=
0A
1D
1E
0I
0F
0?
08
1:
1I
1F
1J
1,
0*
0;
0:
0J
0,
0-
1;
1-
#308000
1!
1=
0E
0B
1?
18
19
0I
0F
1+
1*
1:
1J
1,
0;
0-
#312000
1"
0!
0=
1A
0?
08
0*
#316000
1!
1=
1B
1?
18
09
0+
1*
#320000
1%
0$
0#
0"
0!
0=
0A
0D
0H
1>
1E
1I
1F
0J
1;
0:
0F
1K
1J
0,
1-
0;
0<
1:
1,
0)
0-
#324000
1!
1=
0?
08
0*
#328000
1"
0!
0=
1A
0E
0B
1?
18
19
1F
1+
1*
0:
0,
#332000
1!
1=
0?
08
0*
#336000
1#
0"
0!
0=
0A
1D
1E
1B
0I
0F
1?
18
1:
09
1I
1F
0K
0J
0+
1,
1*
1;
1<
0:
1K
1J
0,
1)
1-
0;
0<
0)
0-
#340000
1!
1=
0?
08
0*
#344000
1"
0!
0=
1A
0E
0B
1?
18
19
0I
0F
1+
1*
1:
0K
0J
1,
1;
1<
1)
1-
#348000
1!
1=
0?
08
0*
#352000
1$
0#
0"
0!
0=
0A
0D
1H
1E
1B
1I
1F
1J
1?
18
0;
0:
09
0F
0J
0+
0,
0-
1*
1;
1:
1,
1-
#356000
1!
1=
0?
08
0*
#360000
1"
0!
0=
1A
0E
0B
1?
18
19
1F
1+
1*
0:
0,
#364000
1!
1=
0?
08
0*
#368000
1#
0"
0!
0=
0A
1D
1E
1B
0I
0F
1?
18
1:
09
1I
1F
1J
0+
1,
1*
0;
0:
0J
0,
0-
1;
1-
#372000
1!
1=
0?
08
0*
#376000
1"
0!
0=
1A
0E
0B
1?
18
19
0I
0F
1+
1*
1:
1J
1,
0;
0-
#380000
1!
1=
0?
08
0*
#384000
1&
0%
0$
0#
0"
0!
0=
0A
0D
0H
0>
1@
1E
1I
1F
0J
1;
0:
0F
1K
1J
0,
1-
0;
0<
1:
1,
0)
0-
#388000
1!
1=
1B
1?
18
09
0+
1*
#392000
1"
0!
0=
1A
0?
08
0*
#396000
1!
1=
0E
0B
1?
18
19
1F
1+
1*
0:
0,
#400000
1#
0"
0!
0=
0A
1D
1E
0I
0F
0?
08
1:
1I
1F
0K
0J
1,
0*
1;
1<
0:
1K
1J
0,
1)
1-
0;
0<
0)
0-
#404000
1!
1=
1B
1?
18
09
0+
1*
#408000
1"
0!
0=
1A
0?
08
0*
#412000
1!
1=
0E
0B
1?
18
19
0I
0F
1+
1*
1:
0K
0J
1,
1;
1<
1)
1-
#416000
1$
0#
0"
0!
0=
0A
0D
1H
1E
1I
1F
1J
0?
08
0;
0:
0F
0J
0,
0-
0*
1;
1:
1,
1-
#420000
1!
1=
1B
1?
18
09
0+
1*
#424000
1"
0!
0=
1A
0?
08
0*
#428000
1!
1=
0E
0B
1?
18
19
1F
1+
1*
0:
0,
#432000
1#
0"
0!
0=
0A
1D
1E
0I
0F
0?
08
1:
1I
1F
1J
1,
0*
0;
0:
0J
0,
0-
1;
1-
#436000
1!
1=
1B
1?
18
09
0+
1*
#440000
1"
0!
0=
1A
0?
08
0*
#444000
1!
1=
0E
0B
1?
18
19
0I
0F
1+
1*
1:
1J
1,
0;
0-
#448000
1%
0$
0#
0"
0!
0=
0A
0D
0H
1>
1E
1I
1F
0J
1;
0:
0F
1K
1J
0,
1-
0;
0<
1:
1,
0)
0-
#452000
1!
1=
0?
08
0*
#456000
1"
0!
0=
1A
1B
1?
18
09
0+
1*
#460000
1!
1=
0?
08
0*
#464000
1#
0"
0!
0=
0A
1D
0B
1F
1?
18
0:
19
1+
0,
1*
#468000
1!
1=
0?
08
0*
#472000
1"
0!
0=
1A
1B
1?
18
09
0+
1*
#476000
1!
1=
0?
08
0*
#480000
1$
0#
0"
0!
0=
0A
0D
1H
0B
0F
0K
0J
1?
18
1;
1<
1:
19
1+
1,
1)
1-
1*
#484000
1!
1=
0?
08
0*
#488000
1"
0!
0=
1A
1B
1?
18
09
0+
1*
#492000
1!
1=
0?
08
0*
#496000
1#
0"
0!
0=
0A
1D
0B
1F
1?
18
0:
19
1+
0,
1*
#500000
1!
1=
0?
08
0*
#504000
1"
0!
0=
1A
1B
1?
18
09
0+
1*
#508000
1!
1=
0?
08
0*
#512000
1(
0'
0&
0%
0$
0#
0"
0!
0=
0A
0D
0H
0>
0@
0C
1G
1K
0<
0)
#516000
1!
1=
0E
0B
1?
18
19
0I
0F
1+
1*
1:
1J
1,
0;
0-
#520000
1"
0!
0=
1A
0?
08
0*
#524000
1!
1=
1B
1?
18
09
0+
1*
#528000
1#
0"
0!
0=
0A
1D
1E
1F
0?
08
0:
0F
0,
0*
1:
1,
#532000
1!
1=
0E
0B
1?
18
19
1F
1+
1*
0:
0,
#536000
1"
0!
0=
1A
0?
08
0*
#540000
1!
1=
1B
1?
18
09
0+
1*
#544000
1$
0#
0"
0!
0=
0A
0D
1H
1E
0F
0K
0J
0?
08
1;
1<
1:
1I
1F
1,
1)
1-
0*
0:
1K
1J
0,
0;
0<
0)
0-
#548000
1!
1=
0E
0B
1?
18
19
0I
0F
1+
1*
1:
0K
0J
1,
1;
1<
1)
1-
#552000
1"
0!
0=
1A
0?
08
0*
#556000
1!
1=
1B
1?
18
09
0+
1*
#560000
1#
0"
0!
0=
0A
1D
1E
1F
0?
08
0:
0F
0,
0*
1:
1,
#564000
1!
1=
0E
0B
1?
18
19
1F
1+
1*
0:
0,
#568000
1"
0!
0=
1A
0?
08
0*
#572000
1!
1=
1B
1?
18
09
0+
1*
#576000
1%
0$
0#
0"
0!
0=
0A
0D
0H
1>
1E
0F
1K
1J
0;
0<
1:
1I
1F
1,
0)
0-
0:
0J
0,
1;
1-
#580000
1!
1=
0?
08
0*
#584000
1"
0!
0=
1A
0E
0B
1?
18
19
0I
0F
1+
1*
1:
1J
1,
0;
0-
#588000
1!
1=
0?
08
0*
#592000
1#
0"
0!
0=
0A
1D
1E
1B
1F
1?
18
0:
09
0F
0+
0,
1*
1:
1,
#596000
1!
1=
0?
08
0*
#600000
1"
0!
0=
1A
0E
0B
1?
18
19
1F
1+
1*
0:
0,
#604000
1!
1=
0?
08
0*
#608000
1$
0#
0"
0!
0=
0A
0D
1H
1E
1B
0F
0K
0J
1?
18
1;
1<
1:
09
1I
1F
0+
1,
1)
1-
1*
0:
1K
1J
0,
0;
0<
0)
0-
#612000
1!
1=
0?
08
0*
#616000
1"
0!
0=
1A
0E
0B
1?
18
19
0I
0F
1+
1*
1:
0K
0J
1,
1;
1<
1)
1-
#620000
1!
1=
0?
08
0*
#624000
1#
0"
0!
0=
0A
1D
1E
1B
1F
1?
18
0:
09
0F
0+
0,
1*
1:
1,
#628000
1!
1=
0?
08
0*
#632000
1"
0!
0=
1A
0E
0B
1?
18
19
1F
1+
1*
0:
0,
#636000
1!
1=
0?
08
0*
#640000
1&
0%
0$
0#
0"
0!
0=
0A
0D
0H
0>
1@
1E
0F
1K
1J
0;
0<
1:
1I
1F
1,
0)
0-
0:
0J
0,
1;
1-
#644000
1!
1=
1B
1?
18
09
0+
1*
#648000
1"
0!
0=
1A
0?
08
0*
#652000
1!
1=
0E
0B
1?
18
19
0I
0F
1+
1*
1:
1J
1,
0;
0-
#656000
1#
0"
0!
0=
0A
1D
1E
1F
0?
08
0:
0F
0,
0*
1:
1,
#660000
1!
1=
1B
1?
18
09
0+
1*
#664000
1"
0!
0=
1A
0?
08
0*
#668000
1!
1=
0E
0B
1?
18
19
1F
1+
1*
0:
0,
#672000
1$
0#
0"
0!
0=
0A
0D
1H
1E
0F
0K
0J
0?
08
1;
1<
1:
1I
1F
1,
1)
1-
0*
0:
1K
1J
0,
0;
0<
0)
0-
#676000
1!
1=
1B
1?
18
09
0+
1*
#680000
1"
0!
0=
1A
0?
08
0*
#684000
1!
1=
0E
0B
1?
18
19
0I
0F
1+
1*
1:
0K
0J
1,
1;
1<
1)
1-
#688000
1#
0"
0!
0=
0A
1D
1E
1F
0?
08
0:
0F
0,
0*
1:
1,
#692000
1!
1=
1B
1?
18
09
0+
1*
#696000
1"
0!
0=
1A
0?
08
0*
#700000
1!
1=
0E
0B
1?
18
19
1F
1+
1*
0:
0,
#704000
1%
0$
0#
0"
0!
0=
0A
0D
0H
1>
1E
0F
1K
1J
0;
0<
1:
1I
1F
1,
0)
0-
0:
0J
0,
1;
1-
#708000
1!
1=
0?
08
0*
#712000
1"
0!
0=
1A
1B
1?
18
09
0+
1*
#716000
1!
1=
0?
08
0*
#720000
1#
0"
0!
0=
0A
1D
0B
0I
0F
1?
18
1:
19
1J
1+
1,
1*
0;
0-
#724000
1!
1=
0?
08
0*
#728000
1"
0!
0=
1A
1B
1?
18
09
0+
1*
#732000
1!
1=
0?
08
0*
#736000
1$
0#
0"
0!
0=
0A
0D
1H
0B
1I
1F
0K
0J
1?
18
1;
1<
0:
19
1K
1J
1+
0,
1)
1-
1*
0;
0<
0)
0-
#740000
1!
1=
0?
08
0*
#744000
1"
0!
0=
1A
1B
1?
18
09
0+
1*
#748000
1!
1=
0?
08
0*
#752000
1#
0"
0!
0=
0A
1D
0B
0I
0F
1?
18
1:
19
0K
0J
1+
1,
1*
1;
1<
1)
1-
#756000
1!
1=
0?
08
0*
#760000
1"
0!
0=
1A
1B
1?
18
09
0+
1*
#764000
1!
1=
0?
08
0*
#768000
1'
0&
0%
0$
0#
0"
0!
0=
0A
0D
0H
0>
0@
1C
1I
1K
1J
0;
0<
0J
0)
0-
1;
1-
#772000
1!
1=
0E
0B
1?
18
19
1F
1+
1*
0:
0,
#776000
1"
0!
0=
1A
0?
08
0*
#780000
1!
1=
1B
1?
18
09
0+
1*
#784000
1#
0"
0!
0=
0A
1D
1E
0I
0F
0?
08
1:
1I
1F
1J
1,
0*
0;
0:
0J
0,
0-
1;
1-
#788000
1!
1=
0E
0B
1?
18
19
0I
0F
1+
1*
1:
1J
1,
0;
0-
#792000
1"
0!
0=
1A
0?
08
0*
#796000
1!
1=
1B
1?
18
09
0+
1*
#800000
1$
0#
0"
0!
0=
0A
0D
1H
1E
1I
1F
0K
0J
0?
08
1;
1<
0:
0F
1K
1J
0,
1)
1-
0*
0;
0<
1:
1,
0)
0-
#804000
1!
1=
0E
0B
1?
18
19
1F
1+
1*
0:
0,
#808000
1"
0!
0=
1A
0?
08
0*
#812000
1!
1=
1B
1?
18
09
0+
1*
#816000
1#
0"
0!
0=
0A
1D
1E
0I
0F
0?
08
1:
1I
1F
0K
0J
1,
0*
1;
1<
0:
1K
1J
0,
1)
1-
0;
0<
0)
0-
#820000
1!
1=
0E
0B
1?
18
19
0I
0F
1+
1*
1:
0K
0J
1,
1;
1<
1)
1-
#824000
1"
0!
0=
1A
0?
08
0*
#828000
1!
1=
1B
1?
18
09
0+
1*
#832000
1%
0$
0#
0"
0!
0=
0A
0D
0H
1>
1E
1I
1F
1K
1J
0;
0<
0:
0F
0J
0,
0)
0-
1;
1:
1,
1-
#836000
1!
1=
0?
08
0*
#840000
1"
0!
0=
1A
0E
0B
1?
18
19
1F
1+
1*
0:
0,
#844000
1!
1=
0?
08
0*
#848000
1#
0"
0!
0=
0A
1D
1E
1B
0I
0F
1?
18
1:
09
1I
1F
1J
0+
1,
1*
0;
0:
0J
0,
0-
1;
1-
#852000
1!
1=
0?
08
0*
#856000
1"
0!
0=
1A
0E
0B
1?
18
19
0I
0F
1+
1*
1:
1J
1,
0;
0-
#860000
1!
1=
0?
08
0*
#864000
1$
0#
0"
0!
0=
0A
0D
1H
1E
1B
1I
1F
0K
0J
1?
18
1;
1<
0:
09
0F
1K
1J
0+
0,
1)
1-
1*
0;
0<
1:
1,
0)
0-
#868000
1!
1=
0?
08
0*
#872000
1"
0!
0=
1A
0E
0B
1?
18
19
1F
1+
1*
0:
0,
#876000
1!
1=
0?
08
0*
#880000
1#
0"
0!
0=
0A
1D
1E
1B
0I
0F
1?
18
1:
09
1I
1F
0K
0J
0+
1,
1*
1;
1<
0:
1K
1J
0,
1)
1-
0;
0<
0)
0-
#884000
1!
1=
0?
08
0*
#888000
1"
0!
0=
1A
0E
0B
1?
18
19
0I
0F
1+
1*
1:
0K
0J
1,
1;
1<
1)
1-
#892000
1!
1=
0?
08
0*
#896000
1&
0%
0$
0#
0"
0!
0=
0A
0D
0H
0>
1@
1E
1I
1F
1K
1J
0;
0<
0:
0F
0J
0,
0)
0-
1;
1:
1,
1-
#900000
1!
1=
1B
1?
18
09
0+
1*
#904000
1"
0!
0=
1A
0?
08
0*
#908000
1!
1=
0E
0B
1?
18
19
1F
1+
1*
0:
0,
#912000
1#
0"
0!
0=
0A
1D
1E
0I
0F
0?
08
1:
1I
1F
1J
1,
0*
0;
0:
0J
0,
0-
1;
1-
#916000
1!
1=
1B
1?
18
09
0+
1*
#920000
1"
0!
0=
1A
0?
08
0*
#924000
1!
1=
0E
0B
1?
18
19
0I
0F
1+
1*
1:
1J
1,
0;
0-
#928000
1$
0#
0"
0!
0=
0A
0D
1H
1E
1I
1F
0K
0J
0?
08
1;
1<
0:
0F
1K
1J
0,
1)
1-
0*
0;
0<
1:
1,
0)
0-
#932000
1!
1=
1B
1?
18
09
0+
1*
#936000
1"
0!
0=
1A
0?
08
0*
#940000
1!
1=
0E
0B
1?
18
19
1F
1+
1*
0:
0,
#944000
1#
0"
0!
0=
0A
1D
1E
0I
0F
0?
08
1:
1I
1F
0K
0J
1,
0*
1;
1<
0:
1K
1J
0,
1)
1-
0;
0<
0)
0-
#948000
1!
1=
1B
1?
18
09
0+
1*
#952000
1"
0!
0=
1A
0?
08
0*
#956000
1!
1=
0E
0B
1?
18
19
0I
0F
1+
1*
1:
0K
0J
1,
1;
1<
1)
1-
#960000
1%
0$
0#
0"
0!
0=
0A
0D
0H
1>
1E
1I
1F
1K
1J
0;
0<
0:
0F
0J
0,
0)
0-
1;
1:
1,
1-
#964000
1!
1=
0?
08
0*
#968000
1"
0!
0=
1A
1B
1?
18
09
0+
1*
#972000
1!
1=
0?
08
0*
#976000
1#
0"
0!
0=
0A
1D
0B
1F
1?
18
0:
19
1+
0,
1*
#980000
1!
1=
0?
08
0*
#984000
1"
0!
0=
1A
1B
1?
18
09
0+
1*
#988000
1!
1=
0?
08
0*
#992000
1$
0#
0"
0!
0=
0A
0D
1H
0B
0F
1J
1?
18
0;
1:
19
1+
1,
0-
1*
#996000
1!
1=
0?
08
0*
