II/Lab1/simulation/qsim/Lab1.msim.vcd
$comment
	File created using the following command:
		vcd file Lab1.msim.vcd -direction
$end
$date
	Mon Jan 27 02:57:48 2020
$end
$version
	ModelSim Version 10.5b
$end
$timescale
	1ps
$end

$scope module Lab1_vlg_vec_tst $end
$var reg 1 ! SW0 $end
$var reg 1 " SW1 $end
$var wire 1 # LEDR0 $end
$var wire 1 $ LEDR1 $end

$scope module i1 $end
$var wire 1 % gnd $end
$var wire 1 & vcc $end
$var wire 1 ' unknown $end
$var tri1 1 ( devclrn $end
$var tri1 1 ) devpor $end
$var tri1 1 * devoe $end
$var wire 1 + ~QUARTUS_CREATED_GND~I_combout $end
$var wire 1 , ~QUARTUS_CREATED_UNVM~~busy $end
$var wire 1 - ~QUARTUS_CREATED_ADC1~~eoc $end
$var wire 1 . ~QUARTUS_CREATED_ADC2~~eoc $end
$var wire 1 / LEDR0~output_o $end
$var wire 1 0 LEDR1~output_o $end
$var wire 1 1 SW1~input_o $end
$var wire 1 2 SW0~input_o $end
$var wire 1 3 inst3~combout $end
$upscope $end
$upscope $end
$enddefinitions $end
#0
$dumpvars
0!
0"
1#
1$
0%
1&
x'
1(
1)
1*
0+
z,
z-
z.
1/
10
01
02
03
$end
#50000
1!
12
13
00
0/
0#
0$
#100000
1"
0!
02
11
#150000
1!
12
#200000
0"
0!
02
01
03
10
1/
1#
1$
#250000
1!
12
13
00
0/
0#
0$
#300000
1"
0!
02
11
#350000
1!
12
#400000
0"
0!
02
01
03
10
1/
1#
1$
#450000
1!
12
13
00
0/
0#
0$
#500000
1"
0!
02
11
#550000
1!
12
#600000
0"
0!
02
01
03
10
1/
1#
1$
#650000
1!
12
13
00
0/
0#
0$
#700000
1"
0!
02
11
#750000
1!
12
#800000
0"
0!
02
01
03
10
1/
1#
1$
#850000
1!
12
13
00
0/
0#
0$
#900000
1"
0!
02
11
#950000
1!
12
