II/Lab1/simulation/qsim/Lab1.msim.vcd
$comment
	File created using the following command:
		vcd file Lab1.msim.vcd -direction
$end
$date
	Mon Jan 27 15:54:04 2020
$end
$version
	ModelSim Version 10.5b
$end
$timescale
	1ps
$end

$scope module Lab1_vlg_vec_tst $end
$var reg 1 ! SW0 $end
$var reg 1 " SW1 $end
$var wire 1 # LEDR0 $end
$var wire 1 $ LEDR1 $end
$var wire 1 % LEDR2 $end
$var wire 1 & LEDR3 $end
$var wire 1 ' LEDR4 $end
$var wire 1 ( LEDR5 $end
$var wire 1 ) LEDR6 $end
$var wire 1 * LEDR7 $end
$var wire 1 + LEDR8 $end
$var wire 1 , LEDR9 $end

$scope module i1 $end
$var wire 1 - gnd $end
$var wire 1 . vcc $end
$var wire 1 / unknown $end
$var tri1 1 0 devclrn $end
$var tri1 1 1 devpor $end
$var tri1 1 2 devoe $end
$var wire 1 3 ~QUARTUS_CREATED_GND~I_combout $end
$var wire 1 4 ~QUARTUS_CREATED_UNVM~~busy $end
$var wire 1 5 ~QUARTUS_CREATED_ADC1~~eoc $end
$var wire 1 6 ~QUARTUS_CREATED_ADC2~~eoc $end
$var wire 1 7 LEDR0~output_o $end
$var wire 1 8 LEDR2~output_o $end
$var wire 1 9 LEDR4~output_o $end
$var wire 1 : LEDR6~output_o $end
$var wire 1 ; LEDR8~output_o $end
$var wire 1 < LEDR1~output_o $end
$var wire 1 = LEDR3~output_o $end
$var wire 1 > LEDR5~output_o $end
$var wire 1 ? LEDR7~output_o $end
$var wire 1 @ LEDR9~output_o $end
$var wire 1 A SW1~input_o $end
$var wire 1 B SW0~input_o $end
$var wire 1 C inst3~combout $end
$upscope $end
$upscope $end
$enddefinitions $end
#0
$dumpvars
0!
0"
1#
0$
1%
0&
1'
0(
1)
0*
1+
0,
0-
1.
x/
10
11
12
03
z4
z5
z6
17
18
19
1:
1;
0<
0=
0>
0?
0@
0A
0B
0C
$end
#50000
1!
1B
1C
0;
0:
09
08
07
0#
0%
0'
0)
0+
#100000
1"
0!
0B
1A
#150000
1!
1B
#200000
0"
0!
0B
0A
0C
1;
1:
19
18
17
1#
1%
1'
1)
1+
#250000
1!
1B
1C
0;
0:
09
08
07
0#
0%
0'
0)
0+
#300000
1"
0!
0B
1A
#350000
1!
1B
#400000
0"
0!
0B
0A
0C
1;
1:
19
18
17
1#
1%
1'
1)
1+
#450000
1!
1B
1C
0;
0:
09
08
07
0#
0%
0'
0)
0+
#500000
1"
0!
0B
1A
#550000
1!
1B
#600000
0"
0!
0B
0A
0C
1;
1:
19
18
17
1#
1%
1'
1)
1+
#650000
1!
1B
1C
0;
0:
09
08
07
0#
0%
0'
0)
0+
#700000
1"
0!
0B
1A
#750000
1!
1B
#800000
0"
0!
0B
0A
0C
1;
1:
19
18
17
1#
1%
1'
1)
1+
#850000
1!
1B
1C
0;
0:
09
08
07
0#
0%
0'
0)
0+
#900000
1"
0!
0B
1A
#950000
1!
1B
